Verilog/Lab6_Processor/Part5/Simulation/test.vcd
$date
	Sun Nov 12 16:20:12 2023
$end
$version
	Icarus Verilog
$end
$timescale
	1ps
$end
$scope module test $end
$var wire 32 ! testREGval [31:0] $end
$var reg 1 " INT $end
$var reg 1 # clk $end
$scope module T $end
$var wire 1 " INT $end
$var wire 1 # clk $end
$var wire 1 $ zero $end
$var wire 32 % testREGval [31:0] $end
$var wire 6 & st [5:0] $end
$var wire 1 ' sign $end
$var wire 5 ( i4_0 [4:0] $end
$var wire 4 ) i31_28 [3:0] $end
$var wire 1 * carry $end
$var wire 1 + brsignal $end
$var wire 2 , WriteRegSel [1:0] $end
$var wire 1 - WriteInfoSel $end
$var wire 1 . RegWrite $end
$var wire 1 / RegRead $end
$var wire 2 0 Read2Sel [1:0] $end
$var wire 1 1 Read1Sel $end
$var wire 1 2 PCSel $end
$var wire 1 3 PCIn $end
$var wire 1 4 MemWrite $end
$var wire 1 5 MemRead $end
$var wire 1 6 InstrRead $end
$var wire 1 7 ImmSel $end
$var wire 1 8 DataSel $end
$var wire 3 9 BrOp [2:0] $end
$var wire 2 : ALUin2 [1:0] $end
$var wire 4 ; ALUOp [3:0] $end
$scope module bc $end
$var wire 1 $ zero $end
$var wire 1 ' sign $end
$var wire 1 * carry $end
$var wire 3 < BrOp [2:0] $end
$var reg 1 + brsignal $end
$upscope $end
$scope module cu $end
$var wire 1 " INT $end
$var wire 1 # clk $end
$var wire 4 = opcode [3:0] $end
$var wire 5 > func [4:0] $end
$var wire 2 ? WriteRegSel [1:0] $end
$var wire 1 - WriteInfoSel $end
$var wire 1 . RegWrite $end
$var wire 1 / RegRead $end
$var wire 2 @ Read2Sel [1:0] $end
$var wire 1 1 Read1Sel $end
$var wire 1 2 PCSel $end
$var wire 1 3 PCIn $end
$var wire 1 4 MemWrite $end
$var wire 1 5 MemRead $end
$var wire 1 6 InstrRead $end
$var wire 1 7 ImmSel $end
$var wire 1 8 DataSel $end
$var wire 3 A BrOp [2:0] $end
$var wire 2 B ALUin2 [1:0] $end
$var wire 4 C ALUOp [3:0] $end
$var reg 24 D combine [23:0] $end
$var reg 6 E state [5:0] $end
$upscope $end
$scope module dp $end
$var wire 4 F ALUOp [3:0] $end
$var wire 2 G ALUin2 [1:0] $end
$var wire 1 8 DataSel $end
$var wire 1 7 ImmSel $end
$var wire 1 6 InstrRead $end
$var wire 1 5 MemRead $end
$var wire 1 4 MemWrite $end
$var wire 1 3 PCIn $end
$var wire 1 2 PCSel $end
$var wire 1 1 Read1Sel $end
$var wire 2 H Read2Sel [1:0] $end
$var wire 1 / RegRead $end
$var wire 1 . RegWrite $end
$var wire 1 - WriteInfoSel $end
$var wire 2 I WriteRegSel [1:0] $end
$var wire 1 + brsignal $end
$var wire 1 # clk $end
$var wire 1 $ zero $end
$var wire 32 J testREGval [31:0] $end
$var wire 1 ' sign $end
$var wire 5 K i4_0 [4:0] $end
$var wire 4 L i31_28 [3:0] $end
$var wire 5 M i27_23 [4:0] $end
$var wire 28 N i27_0 [27:0] $end
$var wire 18 O i22_5 [17:0] $end
$var wire 5 P i22_18 [4:0] $end
$var wire 5 Q i17_13 [4:0] $end
$var wire 1 * carry $end
$var wire 5 R WRITEREGSELval [4:0] $end
$var wire 32 S WRITEINFOSELval [31:0] $end
$var wire 32 T SIGNEX2832val [31:0] $end
$var wire 32 U SIGNEX1832val [31:0] $end
$var wire 32 V READREG2val [31:0] $end
$var wire 32 W READREG1val [31:0] $end
$var wire 5 X READ2SELval [4:0] $end
$var wire 5 Y READ1SELval [4:0] $end
$var wire 32 Z PCval [31:0] $end
$var wire 32 [ PCSELval [31:0] $end
$var wire 32 \ PCADDERval [31:0] $end
$var wire 32 ] IMMSELval [31:0] $end
$var wire 32 ^ DATASELval [31:0] $end
$var wire 32 _ DATAMEMval [31:0] $end
$var wire 32 ` BRSIGNALval [31:0] $end
$var wire 32 a ALUval [31:0] $end
$var wire 32 b ALUIN2val [31:0] $end
$scope module DATAMEM $end
$var wire 1 5 MemRead $end
$var wire 1 4 MemWrite $end
$var wire 32 c in_data [31:0] $end
$var wire 32 d in_add [31:0] $end
$var reg 32 e out [31:0] $end
$upscope $end
$scope module INSTRMEM $end
$var wire 1 6 InstrRead $end
$var wire 32 f instr_add [31:0] $end
$var wire 5 g i4_0 [4:0] $end
$var wire 4 h i31_28 [3:0] $end
$var wire 5 i i27_23 [4:0] $end
$var wire 28 j i27_0 [27:0] $end
$var wire 18 k i22_5 [17:0] $end
$var wire 5 l i22_18 [4:0] $end
$var wire 5 m i17_13 [4:0] $end
$var reg 32 n readreg [31:0] $end
$upscope $end
$scope module MUX_ALUIN2 $end
$var wire 2 o contr [1:0] $end
$var wire 32 p in_2 [31:0] $end
$var wire 32 q out [31:0] $end
$var wire 32 r in_1 [31:0] $end
$var wire 32 s in_0 [31:0] $end
$upscope $end
$scope module MUX_BRSINGAL $end
$var wire 1 + contr $end
$var wire 32 t in_0 [31:0] $end
$var wire 32 u out [31:0] $end
$var wire 32 v in_1 [31:0] $end
$upscope $end
$scope module MUX_DATASEL $end
$var wire 1 8 contr $end
$var wire 32 w out [31:0] $end
$var wire 32 x in_1 [31:0] $end
$var wire 32 y in_0 [31:0] $end
$upscope $end
$scope module MUX_IMMSEL $end
$var wire 1 7 contr $end
$var wire 32 z out [31:0] $end
$var wire 32 { in_1 [31:0] $end
$var wire 32 | in_0 [31:0] $end
$upscope $end
$scope module MUX_PCSel $end
$var wire 1 2 contr $end
$var wire 32 } in_1 [31:0] $end
$var wire 32 ~ out [31:0] $end
$var wire 32 !" in_0 [31:0] $end
$upscope $end
$scope module MUX_READ1SEL $end
$var wire 1 1 contr $end
$var wire 5 "" in_0 [4:0] $end
$var wire 5 #" in_1 [4:0] $end
$var wire 5 $" out [4:0] $end
$upscope $end
$scope module MUX_READ2SEL $end
$var wire 2 %" contr [1:0] $end
$var wire 5 &" in_0 [4:0] $end
$var wire 5 '" in_1 [4:0] $end
$var wire 5 (" in_2 [4:0] $end
$var wire 5 )" out [4:0] $end
$upscope $end
$scope module MUX_WRITEINFOSEL $end
$var wire 1 - contr $end
$var wire 32 *" in_1 [31:0] $end
$var wire 32 +" out [31:0] $end
$var wire 32 ," in_0 [31:0] $end
$upscope $end
$scope module MUX_WRITEREGSEL $end
$var wire 2 -" contr [1:0] $end
$var wire 5 ." in_0 [4:0] $end
$var wire 5 /" in_1 [4:0] $end
$var wire 5 0" in_2 [4:0] $end
$var wire 5 1" out [4:0] $end
$upscope $end
$scope module PC $end
$var wire 1 # clk $end
$var wire 32 2" in [31:0] $end
$var wire 1 3 pc_in $end
$var reg 32 3" out [31:0] $end
$upscope $end
$scope module PCADDER $end
$var wire 32 4" in_0 [31:0] $end
$var wire 32 5" in_1 [31:0] $end
$var wire 32 6" out [31:0] $end
$upscope $end
$scope module REGBANK $end
$var wire 1 / RegRead $end
$var wire 1 . RegWrite $end
$var wire 1 # clk $end
$var wire 5 7" readport1 [4:0] $end
$var wire 5 8" readport2 [4:0] $end
$var wire 32 9" reg15val [31:0] $end
$var wire 1 :" rst $end
$var wire 32 ;" writedata [31:0] $end
$var wire 5 <" writeport [4:0] $end
$var reg 32 =" regA [31:0] $end
$var reg 32 >" regB [31:0] $end
$var reg 32 ?" sp [31:0] $end
$var integer 32 @" i [31:0] $end
$upscope $end
$scope module SIGNEX1832 $end
$var wire 18 A" in [17:0] $end
$var wire 32 B" out [31:0] $end
$upscope $end
$scope module SIGNEX2832 $end
$var wire 28 C" in [27:0] $end
$var wire 32 D" out [31:0] $end
$upscope $end
$scope module alu $end
$var wire 32 E" a [31:0] $end
$var wire 32 F" b [31:0] $end
$var wire 4 G" func [3:0] $end
$var reg 32 H" out [31:0] $end
$var reg 1 * over $end
$var reg 1 ' sign $end
$var reg 1 $ zero $end
$upscope $end
$upscope $end
$upscope $end
$upscope $end
$enddefinitions $end
#0
$dumpvars
b0 H"
b1111 G"
bx F"
bx E"
b0 D"
b0 C"
b0 B"
b0 A"
b10000 @"
b10000000000000000000000000000000 ?"
bx >"
bx ="
b0 <"
b0 ;"
0:"
b0 9"
b0 8"
b0 7"
b100 6"
b0 5"
b100 4"
b0 3"
b100 2"
b0 1"
b0 0"
b0 /"
b0 ."
b0 -"
b0 ,"
b0 +"
b0 *"
b0 )"
b0 ("
b0 '"
b0 &"
b0 %"
b0 $"
b10000 #"
b0 ""
b100 !"
b100 ~
b0 }
b0 |
b0 {
b0 z
bx y
b100 x
bx w
b0 v
b100 u
b100 t
bx s
b0 r
bx q
b100 p
b0 o
b0 n
b0 m
b0 l
b0 k
b0 j
b0 i
b0 h
b0 g
b0 f
b0 e
b0 d
bx c
bx b
b0 a
b100 `
b0 _
bx ^
b0 ]
b100 \
b100 [
b0 Z
b0 Y
b0 X
bx W
bx V
b0 U
b0 T
b0 S
b0 R
b0 Q
b0 P
b0 O
b0 N
b0 M
b0 L
b0 K
b0 J
b0 I
b0 H
b0 G
b1111 F
b0 E
b1111000000 D
b1111 C
b0 B
b0 A
b0 @
b0 ?
b0 >
b0 =
b0 <
b1111 ;
b0 :
b0 9
08
07
06
05
04
03
02
01
b0 0
0/
0.
0-
b0 ,
0+
0*
b0 )
b0 (
0'
b0 &
b0 %
0$
1#
0"
b0 !
$end
#1
0#
#2
b1 R
b1 1"
b1 <"
b1 Y
b1 $"
b1 ."
b1 7"
b100000000000000000101001 ]
b100000000000000000101001 r
b100000000000000000101001 v
b100000000000000000101001 z
b1001 (
b1001 >
b1001 K
b1001 g
b1001 ("
b1001 /"
b1 M
b1 i
b1 ""
b100000000000000000101001 T
b100000000000000000101001 |
b100000000000000000101001 D"
b100000000000000000101001 N
b100000000000000000101001 j
b100000000000000000101001 C"
b1 U
b1 {
b1 B"
b1 O
b1 k
b1 A"
b100000000000000000101001 n
16
b1 &
b1 E
b1000000000001111000000 D
1#
#3
0#
#4
06
b1110 &
b1110 E
b1111000000 D
1#
#5
0#
#6
b0 ^
b0 c
b0 w
b0 b
b0 q
b0 F"
b0 V
b0 s
b0 y
b0 >"
b0 W
b0 ="
b0 E"
1/
b1111 &
b1111 E
b100001111000000 D
1#
#7
0#
#8
b1 S
b1 +"
b1 ;"
b1 a
b1 d
b1 ,"
b1 H"
0$
b1 ]
b1 r
b1 v
b1 z
b1 b
b1 q
b1 F"
0/
17
b1 :
b1 B
b1 G
b1 o
b0 ;
b0 C
b0 F
b0 G"
b10000 &
b10000 E
b1010000000000 D
1#
#9
0#
#10
b100000000000000000101001 ]
b100000000000000000101001 r
b100000000000000000101001 v
b100000000000000000101001 z
b0 b
b0 q
b0 F"
1.
07
b0 :
b0 B
b0 G
b0 o
b1111 ;
b1111 C
b1111 F
b1111 G"
b101 &
b101 E
b10001111000000 D
1#
#11
0#
#12
13
0.
b0 &
b0 E
b10000000000001111000000 D
1#
#13
0#
#14
b0 R
b0 1"
b0 <"
b0 Y
b0 $"
b0 ."
b0 7"
b1 ]
b1 r
b1 v
b1 z
b10 )
b10 =
b10 L
b10 h
b1 (
b1 >
b1 K
b1 g
b1 ("
b1 /"
b0 M
b0 i
b0 ""
b1 T
b1 |
b1 D"
b1 N
b1 j
b1 C"
b0 U
b0 {
b0 B"
b0 O
b0 k
b0 A"
b100000000000000000000000000001 n
b1000 [
b1000 x
b1000 ~
b1000 2"
03
16
b1000 \
b1000 !"
b1000 6"
b100 Z
b100 f
b100 3"
b100 5"
b1 &
b1 E
b1000000000001111000000 D
1#
#15
0#
#16
06
b1110 &
b1110 E
b1111000000 D
1#
#17
0#
#18
1/
b1111 &
b1111 E
b100001111000000 D
1#
#19
0#
#20
1$
b0 S
b0 +"
b0 ;"
b0 a
b0 d
b0 ,"
b0 H"
b0 ]
b0 r
b0 v
b0 z
b0 b
b0 q
b0 F"
0/
17
b1 :
b1 B
b1 G
b1 o
b0 ;
b0 C
b0 F
b0 G"
b101001 &
b101001 E
b1010000000000 D
1#
#21
0#
#22
b1 ^
b1 c
b1 w
b1 b
b1 q
b1 F"
b1 V
b1 s
b1 y
b1 >"
b1 X
b1 )"
b1 8"
b1 ]
b1 r
b1 v
b1 z
b10 0
b10 @
b10 H
b10 %"
1/
07
b0 :
b0 B
b0 G
b0 o
b1111 ;
b1111 C
b1111 F
b1111 G"
b11011 &
b11011 E
b10000100001111000000 D
1#
#23
0#
#24
b0 X
b0 )"
b0 8"
b0 0
b0 @
b0 H
b0 %"
0/
14
b101 &
b101 E
b1111000001 D
1#
#25
0#
#26
13
04
b0 &
b0 E
b10000000000001111000000 D
1#
#27
0#
#28
b0 ]
b0 r
b0 v
b0 z
b1111 )
b1111 =
b1111 L
b1111 h
b0 (
b0 >
b0 K
b0 g
b0 ("
b0 /"
b0 T
b0 |
b0 D"
b0 N
b0 j
b0 C"
b11110000000000000000000000000000 n
03
16
b1100 [
b1100 x
b1100 ~
b1100 2"
b1 &
b1 E
b1000000000001111000000 D
b1100 \
b1100 !"
b1100 6"
b1000 Z
b1000 f
b1000 3"
b1000 5"
1#
#29
0#
#30
06
b101 &
b101 E
b1111000000 D
1#
#31
0#
#32
13
b0 &
b0 E
b10000000000001111000000 D
1#
#33
0#
#34
b1000 ]
b1000 r
b1000 v
b1000 z
b101 )
b101 =
b101 L
b101 h
b1000 (
b1000 >
b1000 K
b1000 g
b1000 ("
b1000 /"
b1000 T
b1000 |
b1000 D"
b1000 N
b1000 j
b1000 C"
b1010000000000000000000000001000 n
b10000 [
b10000 x
b10000 ~
b10000 2"
03
16
b10000 \
b10000 !"
b10000 6"
b1100 Z
b1100 f
b1100 3"
b1100 5"
b1 &
b1 E
b1000000000001111000000 D
1#
#35
0#
#36
06
b100110 &
b100110 E
b1111000000 D
1#
#37
0#
#38
b10100 [
b10100 x
b10100 ~
b10100 2"
b10100 \
b10100 !"
b10100 6"
b1000 `
b1000 u
b1000 4"
1+
13
b1 9
b1 <
b1 A
b0 &
b0 E
b10000000000001111001000 D
1#
#39
0#
#40
b100100 ]
b100100 r
b100100 v
b100100 z
b1011 )
b1011 =
b1011 L
b1011 h
b100 (
b100 >
b100 K
b100 g
b100 ("
b100 /"
b100100 T
b100100 |
b100100 D"
b100100 N
b100100 j
b100100 C"
b1 U
b1 {
b1 B"
b1 O
b1 k
b1 A"
b100 `
b100 u
b100 4"
b10110000000000000000000000100100 n
0+
03
16
b0 9
b0 <
b0 A
b11000 [
b11000 x
b11000 ~
b11000 2"
b1 &
b1 E
b1000000000001111000000 D
b11000 \
b11000 !"
b11000 6"
b10100 Z
b10100 f
b10100 3"
b10100 5"
1#
#41
0#
#42
06
b100010 &
b100010 E
b1111000000 D
1#
#43
0#
#44
b0 ^
b0 c
b0 w
b0 b
b0 q
b0 F"
b10000000000000000000000000000000 W
b10000000000000000000000000000000 ="
b10000000000000000000000000000000 E"
b0 V
b0 s
b0 y
b0 >"
b10000 R
b10000 1"
b10000 <"
b10000 Y
b10000 $"
b10000 ."
b10000 7"
11
1/
b100000 &
b100000 E
b100000100001111000000 D
1#
#45
0#
#46
0$
b1111111111111111111111111111100 S
b1111111111111111111111111111100 +"
b1111111111111111111111111111100 ;"
1*
b1111111111111111111111111111100 a
b1111111111111111111111111111100 d
b1111111111111111111111111111100 ,"
b1111111111111111111111111111100 H"
b0 R
b0 1"
b0 <"
b0 Y
b0 $"
b0 ."
b0 7"
b100 b
b100 q
b100 F"
01
0/
b10 :
b10 B
b10 G
b10 o
b1 ;
b1 C
b1 F
b1 G"
b100101 &
b100101 E
b100001000000 D
1#
#47
0#
#48
b10000 R
b10000 1"
b10000 <"
b10000 Y
b10000 $"
b10000 ."
b10000 7"
b0 b
b0 q
b0 F"
b11000 ^
b11000 c
b11000 w
11
1.
b0 :
b0 B
b0 G
b0 o
b1111 ;
b1111 C
b1111 F
b1111 G"
18
14
b100110 &
b100110 E
b100000010001111000101 D
1#
#49
0#
#50
b111000 [
b111000 x
b111000 ~
b111000 2"
b111000 \
b111000 !"
b111000 6"
b100100 `
b100100 u
b100100 4"
1+
b0 R
b0 1"
b0 <"
b0 Y
b0 $"
b0 ."
b0 7"
b0 ^
b0 c
b0 w
13
01
0.
b1 9
b1 <
b1 A
08
04
b1111111111111111111111111111100 ?"
b0 &
b0 E
b10000000000001111001000 D
1#
#51
0#
#52
b0 ]
b0 r
b0 v
b0 z
b1100 )
b1100 =
b1100 L
b1100 h
b0 (
b0 >
b0 K
b0 g
b0 ("
b0 /"
b0 T
b0 |
b0 D"
b0 N
b0 j
b0 C"
b0 U
b0 {
b0 B"
b0 O
b0 k
b0 A"
b100 `
b100 u
b100 4"
b11000000000000000000000000000000 n
0+
03
16
b0 9
b0 <
b0 A
b111100 [
b111100 x
b111100 ~
b111100 2"
b1 &
b1 E
b1000000000001111000000 D
b111100 \
b111100 !"
b111100 6"
b111000 Z
b111000 f
b111000 3"
b111000 5"
1#
#53
0#
#54
06
b100010 &
b100010 E
b1111000000 D
1#
#55
0#
#56
b1111111111111111111111111111100 W
b1111111111111111111111111111100 ="
b1111111111111111111111111111100 E"
b10000 R
b10000 1"
b10000 <"
b10000 Y
b10000 $"
b10000 ."
b10000 7"
11
1/
b11 &
b11 E
b100000100001111000000 D
1#
#57
0#
#58
0*
b0 R
b0 1"
b0 <"
b0 Y
b0 $"
b0 ."
b0 7"
01
0/
b0 ;
b0 C
b0 F
b0 G"
b11001 &
b11001 E
b0 D
1#
#59
0#
#60
b11000 _
b11000 e
b11000 }
b11000 *"
b1111 ;
b1111 C
b1111 F
b1111 G"
15
b100111 &
b100111 E
b1111000010 D
1#
#61
0#
#62
1*
1'
b10000000000000000000000000000000 S
b10000000000000000000000000000000 +"
b10000000000000000000000000000000 ;"
b10000000000000000000000000000000 a
b10000000000000000000000000000000 d
b10000000000000000000000000000000 ,"
b10000000000000000000000000000000 H"
b11000 [
b11000 x
b11000 ~
b11000 2"
b100 b
b100 q
b100 F"
12
13
b10 :
b10 B
b10 G
b10 o
b0 ;
b0 C
b0 F
b0 G"
05
b101010 &
b101010 E
b110000000000100000000000 D
1#
#63
0#
#64
b10000 R
b10000 1"
b10000 <"
b11100 [
b11100 x
b11100 ~
b11100 2"
b10000 Y
b10000 $"
b10000 ."
b10000 7"
b0 b
b0 q
b0 F"
02
03
11
1.
b0 :
b0 B
b0 G
b0 o
b1111 ;
b1111 C
b1111 F
b1111 G"
b0 &
b0 E
b100000010001111000000 D
b11100 \
b11100 !"
b11100 6"
b11000 Z
b11000 f
b11000 3"
b11000 5"
1#
#65
0#
#66
b101111011110000000000000 ]
b101111011110000000000000 r
b101111011110000000000000 v
b101111011110000000000000 z
b0 )
b0 =
b0 L
b0 h
b1 M
b1 i
b1 ""
b1111 P
b1111 l
b1111 '"
b1111 Q
b1111 m
b1111 0"
b101111011110000000000000 T
b101111011110000000000000 |
b101111011110000000000000 D"
b101111011110000000000000 N
b101111011110000000000000 j
b101111011110000000000000 C"
b11110111100000000 U
b11110111100000000 {
b11110111100000000 B"
b11110111100000000 O
b11110111100000000 k
b11110111100000000 A"
b101111011110000000000000 n
b1 R
b1 1"
b1 <"
b1 Y
b1 $"
b1 ."
b1 7"
16
01
0.
b10000000000000000000000000000000 ?"
b1 &
b1 E
b1000000000001111000000 D
1#
#67
0#
#68
06
b10 &
b10 E
b1111000000 D
1#
#69
0#
#70
b1 W
b1 ="
b1 E"
b1111 X
b1111 )"
b1111 8"
b1 0
b1 @
b1 H
b1 %"
1/
b11 &
b11 E
b1000100001111000000 D
1#
#71
0#
#72
0*
0'
b1 S
b1 +"
b1 ;"
b1 a
b1 d
b1 ,"
b1 H"
b0 X
b0 )"
b0 8"
b0 0
b0 @
b0 H
b0 %"
0/
b0 ;
b0 C
b0 F
b0 G"
b100 &
b100 E
b0 D
1#
#73
0#
#74
b1111 R
b1111 1"
b1111 <"
b10 ,
b10 ?
b10 I
b10 -"
1.
b1111 ;
b1111 C
b1111 F
b1111 G"
b101 &
b101 E
b100010001111000000 D
1#
#75
0#
#76
b1 R
b1 1"
b1 <"
13
b0 ,
b0 ?
b0 I
b0 -"
0.
b0 &
b0 E
b10000000000001111000000 D
b1 !
b1 %
b1 J
b1 9"
1#
#77
0#
#78
b1111 R
b1111 1"
b1111 <"
b1111 Y
b1111 $"
b1111 ."
b1111 7"
b111111111111111111100000000 ]
b111111111111111111100000000 r
b111111111111111111100000000 v
b111111111111111111100000000 z
b110 )
b110 =
b110 L
b110 h
b1111 M
b1111 i
b1111 ""
b11111 P
b11111 l
b11111 '"
b11111 Q
b11111 m
b11111 0"
b111111111111111111100000000 T
b111111111111111111100000000 |
b111111111111111111100000000 D"
b111111111111111111100000000 N
b111111111111111111100000000 j
b111111111111111111100000000 C"
b11111111111111111111111111111000 U
b11111111111111111111111111111000 {
b11111111111111111111111111111000 B"
b111111111111111000 O
b111111111111111000 k
b111111111111111000 A"
b1100111111111111111111100000000 n
b100000 [
b100000 x
b100000 ~
b100000 2"
03
16
b100000 \
b100000 !"
b100000 6"
b11100 Z
b11100 f
b11100 3"
b11100 5"
b1 &
b1 E
b1000000000001111000000 D
1#
#79
0#
#80
06
b1110 &
b1110 E
b1111000000 D
1#
#81
0#
#82
1/
b11 &
b11 E
b100001111000000 D
1#
#83
0#
#84
0/
b0 ;
b0 C
b0 F
b0 G"
b11100 &
b11100 E
b0 D
1#
#85
0#
#86
b11111111111111111111111111111000 ]
b11111111111111111111111111111000 r
b11111111111111111111111111111000 v
b11111111111111111111111111111000 z
13
17
b1111 ;
b1111 C
b1111 F
b1111 G"
b10 9
b10 <
b10 A
b0 &
b0 E
b10000000001001111010000 D
1#
#87
0#
#88
b0 R
b0 1"
b0 <"
b0 Y
b0 $"
b0 ."
b0 7"
b1001 )
b1001 =
b1001 L
b1001 h
b0 M
b0 i
b0 ""
b1111 P
b1111 l
b1111 '"
b0 Q
b0 m
b0 0"
b1111000000000000000000 T
b1111000000000000000000 |
b1111000000000000000000 D"
b1111000000000000000000 N
b1111000000000000000000 j
b1111000000000000000000 C"
b11110000000000000 U
b11110000000000000 {
b11110000000000000 B"
b11110000000000000 O
b11110000000000000 k
b11110000000000000 A"
b10010000001111000000000000000000 n
b1111000000000000000000 ]
b1111000000000000000000 r
b1111000000000000000000 v
b1111000000000000000000 z
03
16
07
b0 9
b0 <
b0 A
b100100 [
b100100 x
b100100 ~
b100100 2"
b1 &
b1 E
b1000000000001111000000 D
b100100 \
b100100 !"
b100100 6"
b100000 Z
b100000 f
b100000 3"
b100000 5"
1#
#89
0#
#90
06
b11111 &
b11111 E
b1111000000 D
1#
#91
0#
#92
b1 ^
b1 c
b1 w
b1 b
b1 q
b1 F"
b1 V
b1 s
b1 y
b1 >"
b10000000000000000000000000000000 W
b10000000000000000000000000000000 ="
b10000000000000000000000000000000 E"
b10000 R
b10000 1"
b10000 <"
b10000 Y
b10000 $"
b10000 ."
b10000 7"
b1111 X
b1111 )"
b1111 8"
11
b1 0
b1 @
b1 H
b1 %"
1/
b100000 &
b100000 E
b101000100001111000000 D
1#
#93
0#
#94
b1111111111111111111111111111100 S
b1111111111111111111111111111100 +"
b1111111111111111111111111111100 ;"
1*
b1111111111111111111111111111100 a
b1111111111111111111111111111100 d
b1111111111111111111111111111100 ,"
b1111111111111111111111111111100 H"
b0 R
b0 1"
b0 <"
b0 Y
b0 $"
b0 ."
b0 7"
b0 X
b0 )"
b0 8"
b100 b
b100 q
b100 F"
01
b0 0
b0 @
b0 H
b0 %"
0/
b10 :
b10 B
b10 G
b10 o
b1 ;
b1 C
b1 F
b1 G"
b100001 &
b100001 E
b100001000000 D
1#
#95
0#
#96
b10000 R
b10000 1"
b10000 <"
b10000 Y
b10000 $"
b10000 ."
b10000 7"
b1 b
b1 q
b1 F"
11
1.
b0 :
b0 B
b0 G
b0 o
b1111 ;
b1111 C
b1111 F
b1111 G"
14
b101 &
b101 E
b100000010001111000001 D
1#
#97
0#
#98
b0 R
b0 1"
b0 <"
b0 Y
b0 $"
b0 ."
b0 7"
13
01
0.
04
b1111111111111111111111111111100 ?"
b0 &
b0 E
b10000000000001111000000 D
1#
#99
0#
#100
b100000000000000 ]
b100000000000000 r
b100000000000000 v
b100000000000000 z
b1010 )
b1010 =
b1010 L
b1010 h
b0 P
b0 l
b0 '"
b10 Q
b10 m
b10 0"
b100000000000000 T
b100000000000000 |
b100000000000000 D"
b100000000000000 N
b100000000000000 j
b100000000000000 C"
b1000000000 U
b1000000000 {
b1000000000 B"
b1000000000 O
b1000000000 k
b1000000000 A"
b10100000000000000100000000000000 n
03
16
b101000 [
b101000 x
b101000 ~
b101000 2"
b1 &
b1 E
b1000000000001111000000 D
b101000 \
b101000 !"
b101000 6"
b100100 Z
b100100 f
b100100 3"
b100100 5"
1#
#101
0#
#102
06
b100010 &
b100010 E
b1111000000 D
1#
#103
0#
#104
b0 ^
b0 c
b0 w
b0 b
b0 q
b0 F"
b0 V
b0 s
b0 y
b0 >"
b1111111111111111111111111111100 W
b1111111111111111111111111111100 ="
b1111111111111111111111111111100 E"
b10000 R
b10000 1"
b10000 <"
b10000 Y
b10000 $"
b10000 ."
b10000 7"
11
1/
b11 &
b11 E
b100000100001111000000 D
1#
#105
0#
#106
0*
b0 R
b0 1"
b0 <"
b0 Y
b0 $"
b0 ."
b0 7"
01
0/
b0 ;
b0 C
b0 F
b0 G"
b11001 &
b11001 E
b0 D
1#
#107
0#
#108
b1 _
b1 e
b1 }
b1 *"
b1111 ;
b1111 C
b1111 F
b1111 G"
15
b100011 &
b100011 E
b1111000010 D
1#
#109
0#
#110
1*
1'
b10000000000000000000000000000000 a
b10000000000000000000000000000000 d
b10000000000000000000000000000000 ,"
b10000000000000000000000000000000 H"
b10 R
b10 1"
b10 <"
b1 S
b1 +"
b1 ;"
b100 b
b100 q
b100 F"
b10 ,
b10 ?
b10 I
b10 -"
1-
1.
b10 :
b10 B
b10 G
b10 o
b0 ;
b0 C
b0 F
b0 G"
05
b100100 &
b100100 E
b101010100000000000 D
1#
#111
0#
#112
b10000 Y
b10000 $"
b10000 ."
b10000 7"
b10000 R
b10000 1"
b10000 <"
b10000000000000000000000000000000 S
b10000000000000000000000000000000 +"
b10000000000000000000000000000000 ;"
b0 b
b0 q
b0 F"
13
11
b0 ,
b0 ?
b0 I
b0 -"
0-
b0 :
b0 B
b0 G
b0 o
b1111 ;
b1111 C
b1111 F
b1111 G"
b0 &
b0 E
b10100000010001111000000 D
1#
#113
0#
#114
b1001111011110000000000001 ]
b1001111011110000000000001 r
b1001111011110000000000001 v
b1001111011110000000000001 z
b0 )
b0 =
b0 L
b0 h
b1 (
b1 >
b1 K
b1 g
b1 ("
b1 /"
b10 M
b10 i
b10 ""
b1111 P
b1111 l
b1111 '"
b1111 Q
b1111 m
b1111 0"
b1001111011110000000000001 T
b1001111011110000000000001 |
b1001111011110000000000001 D"
b1001111011110000000000001 N
b1001111011110000000000001 j
b1001111011110000000000001 C"
b11110111100000000 U
b11110111100000000 {
b11110111100000000 B"
b11110111100000000 O
b11110111100000000 k
b11110111100000000 A"
b1001111011110000000000001 n
b10 R
b10 1"
b10 <"
b10 Y
b10 $"
b10 ."
b10 7"
b101100 [
b101100 x
b101100 ~
b101100 2"
03
16
01
0.
b10000000000000000000000000000000 ?"
b101100 \
b101100 !"
b101100 6"
b101000 Z
b101000 f
b101000 3"
b101000 5"
b1 &
b1 E
b1000000000001111000000 D
1#
#115
0#
#116
06
b10 &
b10 E
b1111000000 D
1#
#117
0#
#118
b1 ^
b1 c
b1 w
b1 b
b1 q
b1 F"
b1 V
b1 s
b1 y
b1 >"
b1 W
b1 ="
b1 E"
b1111 X
b1111 )"
b1111 8"
b1 0
b1 @
b1 H
b1 %"
1/
b110 &
b110 E
b1000100001111000000 D
1#
#119
0#
#120
0*
0'
1$
b0 S
b0 +"
b0 ;"
b0 a
b0 d
b0 ,"
b0 H"
b0 X
b0 )"
b0 8"
b0 0
b0 @
b0 H
b0 %"
0/
b1 ;
b1 C
b1 F
b1 G"
b100 &
b100 E
b1000000 D
1#
#121
0#
#122
b1111 R
b1111 1"
b1111 <"
b10 ,
b10 ?
b10 I
b10 -"
1.
b1111 ;
b1111 C
b1111 F
b1111 G"
b101 &
b101 E
b100010001111000000 D
1#
#123
0#
#124
b10 R
b10 1"
b10 <"
13
b0 ,
b0 ?
b0 I
b0 -"
0.
b0 &
b0 E
b10000000000001111000000 D
b0 !
b0 %
b0 J
b0 9"
1#
#125
0#
#126
b1 R
b1 1"
b1 <"
b1 Y
b1 $"
b1 ."
b1 7"
b100000000000000000001111 ]
b100000000000000000001111 r
b100000000000000000001111 v
b100000000000000000001111 z
b1101 )
b1101 =
b1101 L
b1101 h
b1111 (
b1111 >
b1111 K
b1111 g
b1111 ("
b1111 /"
b1 M
b1 i
b1 ""
b0 P
b0 l
b0 '"
b0 Q
b0 m
b0 0"
b100000000000000000001111 T
b100000000000000000001111 |
b100000000000000000001111 D"
b100000000000000000001111 N
b100000000000000000001111 j
b100000000000000000001111 C"
b0 U
b0 {
b0 B"
b0 O
b0 k
b0 A"
b11010000100000000000000000001111 n
b110000 [
b110000 x
b110000 ~
b110000 2"
03
16
b110000 \
b110000 !"
b110000 6"
b101100 Z
b101100 f
b101100 3"
b101100 5"
b1 &
b1 E
b1000000000001111000000 D
1#
#127
0#
#128
06
b1110 &
b1110 E
b1111000000 D
1#
#129
0#
#130
b0 ^
b0 c
b0 w
b0 b
b0 q
b0 F"
b0 V
b0 s
b0 y
b0 >"
1/
b11 &
b11 E
b100001111000000 D
1#
#131
0#
#132
0$
b1 S
b1 +"
b1 ;"
b1 a
b1 d
b1 ,"
b1 H"
0/
b0 ;
b0 C
b0 F
b0 G"
b101000 &
b101000 E
b0 D
1#
#133
0#
