Verilog/Lab6_Processor/Part4/test.vcd
$date
	Mon Nov 13 17:28:47 2023
$end
$version
	Icarus Verilog
$end
$timescale
	1ps
$end
$scope module test $end
$var wire 16 ! out [15:0] $end
$var reg 1 " INT $end
$var reg 1 # clk $end
$var reg 1 $ myclk $end
$scope module T1 $end
$var wire 1 " INT $end
$var wire 1 # clk $end
$var wire 1 $ myclk $end
$var wire 32 % testREGval [31:0] $end
$var wire 1 & slowclk $end
$var wire 6 ' fpstate [5:0] $end
$var wire 1 ( fpclk $end
$var reg 3 ) counter [2:0] $end
$var reg 16 * out [15:0] $end
$var reg 1 + swit $end
$var integer 32 , state [31:0] $end
$scope module T $end
$var wire 1 " INT $end
$var wire 1 ( clk $end
$var wire 1 - zero $end
$var wire 32 . testREGval [31:0] $end
$var wire 6 / st [5:0] $end
$var wire 1 0 sign $end
$var wire 5 1 i4_0 [4:0] $end
$var wire 4 2 i31_28 [3:0] $end
$var wire 1 3 carry $end
$var wire 1 4 brsignal $end
$var wire 2 5 WriteRegSel [1:0] $end
$var wire 1 6 WriteInfoSel $end
$var wire 1 7 RegWrite $end
$var wire 1 8 RegRead $end
$var wire 2 9 Read2Sel [1:0] $end
$var wire 1 : Read1Sel $end
$var wire 1 ; PCSel $end
$var wire 1 < PCIn $end
$var wire 1 = MemWrite $end
$var wire 1 > MemRead $end
$var wire 1 ? InstrRead $end
$var wire 1 @ ImmSel $end
$var wire 1 A DataSel $end
$var wire 3 B BrOp [2:0] $end
$var wire 2 C ALUin2 [1:0] $end
$var wire 4 D ALUOp [3:0] $end
$scope module bc $end
$var wire 1 - zero $end
$var wire 1 0 sign $end
$var wire 1 3 carry $end
$var wire 3 E BrOp [2:0] $end
$var reg 1 4 brsignal $end
$upscope $end
$scope module cu $end
$var wire 1 " INT $end
$var wire 1 ( clk $end
$var wire 4 F opcode [3:0] $end
$var wire 5 G func [4:0] $end
$var wire 2 H WriteRegSel [1:0] $end
$var wire 1 6 WriteInfoSel $end
$var wire 1 7 RegWrite $end
$var wire 1 8 RegRead $end
$var wire 2 I Read2Sel [1:0] $end
$var wire 1 : Read1Sel $end
$var wire 1 ; PCSel $end
$var wire 1 < PCIn $end
$var wire 1 = MemWrite $end
$var wire 1 > MemRead $end
$var wire 1 ? InstrRead $end
$var wire 1 @ ImmSel $end
$var wire 1 A DataSel $end
$var wire 3 J BrOp [2:0] $end
$var wire 2 K ALUin2 [1:0] $end
$var wire 4 L ALUOp [3:0] $end
$var reg 24 M combine [23:0] $end
$var reg 6 N state [5:0] $end
$upscope $end
$scope module dp $end
$var wire 4 O ALUOp [3:0] $end
$var wire 2 P ALUin2 [1:0] $end
$var wire 1 A DataSel $end
$var wire 1 @ ImmSel $end
$var wire 1 ? InstrRead $end
$var wire 1 > MemRead $end
$var wire 1 = MemWrite $end
$var wire 1 < PCIn $end
$var wire 1 ; PCSel $end
$var wire 1 : Read1Sel $end
$var wire 2 Q Read2Sel [1:0] $end
$var wire 1 8 RegRead $end
$var wire 1 7 RegWrite $end
$var wire 1 6 WriteInfoSel $end
$var wire 2 R WriteRegSel [1:0] $end
$var wire 1 4 brsignal $end
$var wire 1 ( clk $end
$var wire 1 - zero $end
$var wire 32 S testREGval [31:0] $end
$var wire 1 0 sign $end
$var wire 5 T i4_0 [4:0] $end
$var wire 4 U i31_28 [3:0] $end
$var wire 5 V i27_23 [4:0] $end
$var wire 28 W i27_0 [27:0] $end
$var wire 18 X i22_5 [17:0] $end
$var wire 5 Y i22_18 [4:0] $end
$var wire 5 Z i17_13 [4:0] $end
$var wire 1 3 carry $end
$var wire 5 [ WRITEREGSELval [4:0] $end
$var wire 32 \ WRITEINFOSELval [31:0] $end
$var wire 32 ] SIGNEX2832val [31:0] $end
$var wire 32 ^ SIGNEX1832val [31:0] $end
$var wire 32 _ READREG2val [31:0] $end
$var wire 32 ` READREG1val [31:0] $end
$var wire 5 a READ2SELval [4:0] $end
$var wire 5 b READ1SELval [4:0] $end
$var wire 32 c PCval [31:0] $end
$var wire 32 d PCSELval [31:0] $end
$var wire 32 e PCADDERval [31:0] $end
$var wire 32 f IMMSELval [31:0] $end
$var wire 32 g DATASELval [31:0] $end
$var wire 32 h DATAMEMval [31:0] $end
$var wire 32 i BRSIGNALval [31:0] $end
$var wire 32 j ALUval [31:0] $end
$var wire 32 k ALUIN2val [31:0] $end
$scope module DATAMEM $end
$var wire 1 > MemRead $end
$var wire 1 = MemWrite $end
$var wire 32 l in_data [31:0] $end
$var wire 32 m in_add [31:0] $end
$var reg 65536 n mem [0:65535] $end
$var reg 32 o out [31:0] $end
$upscope $end
$scope module INSTRMEM $end
$var wire 1 ? InstrRead $end
$var wire 32 p instr_add [31:0] $end
$var wire 5 q i4_0 [4:0] $end
$var wire 4 r i31_28 [3:0] $end
$var wire 5 s i27_23 [4:0] $end
$var wire 28 t i27_0 [27:0] $end
$var wire 18 u i22_5 [17:0] $end
$var wire 5 v i22_18 [4:0] $end
$var wire 5 w i17_13 [4:0] $end
$var reg 32 x readreg [31:0] $end
$upscope $end
$scope module MUX_ALUIN2 $end
$var wire 2 y contr [1:0] $end
$var wire 32 z in_2 [31:0] $end
$var wire 32 { out [31:0] $end
$var wire 32 | in_1 [31:0] $end
$var wire 32 } in_0 [31:0] $end
$upscope $end
$scope module MUX_BRSINGAL $end
$var wire 1 4 contr $end
$var wire 32 ~ in_0 [31:0] $end
$var wire 32 !" out [31:0] $end
$var wire 32 "" in_1 [31:0] $end
$upscope $end
$scope module MUX_DATASEL $end
$var wire 1 A contr $end
$var wire 32 #" out [31:0] $end
$var wire 32 $" in_1 [31:0] $end
$var wire 32 %" in_0 [31:0] $end
$upscope $end
$scope module MUX_IMMSEL $end
$var wire 1 @ contr $end
$var wire 32 &" out [31:0] $end
$var wire 32 '" in_1 [31:0] $end
$var wire 32 (" in_0 [31:0] $end
$upscope $end
$scope module MUX_PCSel $end
$var wire 1 ; contr $end
$var wire 32 )" in_1 [31:0] $end
$var wire 32 *" out [31:0] $end
$var wire 32 +" in_0 [31:0] $end
$upscope $end
$scope module MUX_READ1SEL $end
$var wire 1 : contr $end
$var wire 5 ," in_0 [4:0] $end
$var wire 5 -" in_1 [4:0] $end
$var wire 5 ." out [4:0] $end
$upscope $end
$scope module MUX_READ2SEL $end
$var wire 2 /" contr [1:0] $end
$var wire 5 0" in_0 [4:0] $end
$var wire 5 1" in_1 [4:0] $end
$var wire 5 2" in_2 [4:0] $end
$var wire 5 3" out [4:0] $end
$upscope $end
$scope module MUX_WRITEINFOSEL $end
$var wire 1 6 contr $end
$var wire 32 4" in_1 [31:0] $end
$var wire 32 5" out [31:0] $end
$var wire 32 6" in_0 [31:0] $end
$upscope $end
$scope module MUX_WRITEREGSEL $end
$var wire 2 7" contr [1:0] $end
$var wire 5 8" in_0 [4:0] $end
$var wire 5 9" in_1 [4:0] $end
$var wire 5 :" in_2 [4:0] $end
$var wire 5 ;" out [4:0] $end
$upscope $end
$scope module PC $end
$var wire 1 ( clk $end
$var wire 32 <" in [31:0] $end
$var wire 1 < pc_in $end
$var reg 32 =" out [31:0] $end
$upscope $end
$scope module PCADDER $end
$var wire 32 >" in_0 [31:0] $end
$var wire 32 ?" in_1 [31:0] $end
$var wire 32 @" out [31:0] $end
$upscope $end
$scope module REGBANK $end
$var wire 1 8 RegRead $end
$var wire 1 7 RegWrite $end
$var wire 1 ( clk $end
$var wire 5 A" readport1 [4:0] $end
$var wire 5 B" readport2 [4:0] $end
$var wire 32 C" reg15val [31:0] $end
$var wire 1 D" rst $end
$var wire 32 E" writedata [31:0] $end
$var wire 5 F" writeport [4:0] $end
$var reg 32 G" regA [31:0] $end
$var reg 32 H" regB [31:0] $end
$var reg 32 I" sp [31:0] $end
$var integer 32 J" i [31:0] $end
$upscope $end
$scope module SIGNEX1832 $end
$var wire 18 K" in [17:0] $end
$var wire 32 L" out [31:0] $end
$upscope $end
$scope module SIGNEX2832 $end
$var wire 28 M" in [27:0] $end
$var wire 32 N" out [31:0] $end
$upscope $end
$scope module alu $end
$var wire 32 O" a [31:0] $end
$var wire 32 P" b [31:0] $end
$var wire 4 Q" func [3:0] $end
$var reg 32 R" out [31:0] $end
$var reg 1 3 over $end
$var reg 1 0 sign $end
$var reg 1 - zero $end
$upscope $end
$upscope $end
$upscope $end
$upscope $end
$upscope $end
$enddefinitions $end
#0
$dumpvars
bx R"
b0 Q"
bx P"
bx O"
b0 N"
b0 M"
b0 L"
b0 K"
b10000 J"
b10000000000000000 I"
bx H"
bx G"
b0 F"
bx E"
0D"
b0 C"
b0 B"
b0 A"
b100 @"
b0 ?"
b100 >"
b0 ="
b100 <"
b0 ;"
b0 :"
b0 9"
b0 8"
b0 7"
bx 6"
bx 5"
b0 4"
b0 3"
b0 2"
b0 1"
b0 0"
b0 /"
b0 ."
b10000 -"
b0 ,"
b100 +"
b100 *"
b0 )"
b0 ("
b0 '"
b0 &"
bx %"
b100 $"
bx #"
b0 ""
b100 !"
b100 ~
bx }
b0 |
bx {
b100 z
b0 y
b0 x
b0 w
b0 v
b0 u
b0 t
b0 s
b0 r
b0 q
b0 p
b0 o
b0 n
bx m
bx l
bx k
bx j
b100 i
b0 h
bx g
b0 f
b100 e
b100 d
b0 c
b0 b
b0 a
bx `
bx _
b0 ^
b0 ]
bx \
b0 [
b0 Z
b0 Y
b0 X
b0 W
b0 V
b0 U
b0 T
b0 S
b0 R
b0 Q
b0 P
b0 O
b0 N
b0 M
b0 L
b0 K
b0 J
b0 I
b0 H
b0 G
b0 F
b0 E
b0 D
b0 C
b0 B
0A
0@
0?
0>
0=
0<
0;
0:
b0 9
08
07
06
b0 5
04
x3
b0 2
b0 1
x0
b0 /
b0 .
x-
b0 ,
0+
b1111111111111111 *
b0 )
0(
b0 '
0&
b0 %
1$
0#
0"
b1111111111111111 !
$end
#1
b1 )
1#
#2
0#
#3
b10 )
1#
#4
0#
#5
b11 )
1#
#6
0#
#7
b1 ,
1&
b100 )
1#
#8
0#
#9
b101 )
1#
#10
0#
#11
b110 )
1#
#12
0#
#13
b111 )
1#
#14
0#
#15
0&
b0 )
1#
#16
0#
#17
b1 )
1#
#18
0#
#19
b10 )
1#
#20
0#
#21
b11 )
1#
#22
0#
#23
b10 ,
1&
b100 )
1#
#24
0#
#25
b101 )
1#
#26
0#
#27
b110 )
1#
#28
0#
#29
b111 )
1#
#30
0#
#31
0&
b0 )
1#
#32
0#
#33
b1 )
1#
#34
0#
#35
b10 )
1#
#36
0#
#37
b11 )
1#
#38
0#
#39
b11 ,
b0 !
b0 *
1&
b100 )
1#
#40
0#
#41
b101 )
1#
#42
0#
#43
b110 )
1#
#44
0#
#45
b111 )
1#
#46
0#
#47
0&
b0 )
1#
#48
0#
#49
b1 )
1#
#50
0#
#51
b10 )
1#
#52
0#
#53
b11 )
1#
#54
0#
#55
b1 [
b1 ;"
b1 F"
b1 b
b1 ."
b1 8"
b1 A"
b100000000000000000101001 f
b100000000000000000101001 |
b100000000000000000101001 ""
b100000000000000000101001 &"
b1001 1
b1001 G
b1001 T
b1001 q
b1001 2"
b1001 9"
b1 V
b1 s
b1 ,"
b100000000000000000101001 ]
b100000000000000000101001 ("
b100000000000000000101001 N"
b100000000000000000101001 W
b100000000000000000101001 t
b100000000000000000101001 M"
b1 ^
b1 '"
b1 L"
b1 X
b1 u
b1 K"
b100000000000000000101001 x
1?
b1111 D
b1111 L
b1111 O
b1111 Q"
b1 '
b1 /
b1 N
b1000000000001111000000 M
1(
1+
b0 ,
1&
b100 )
1#
#56
0#
#57
b101 )
1#
#58
0#
#59
b110 )
1#
#60
0#
#61
b111 )
1#
#62
0#
#63
0(
0&
b0 )
1#
#64
0#
#65
b1 )
1#
#66
0#
#67
b10 )
1#
#68
0#
#69
b11 )
1#
#70
0#
#71
0?
b1110 '
b1110 /
b1110 N
b1111000000 M
b1 !
b1 *
1(
1&
b100 )
1#
#72
0#
#73
b101 )
1#
#74
0#
#75
b110 )
1#
#76
0#
#77
b111 )
1#
#78
0#
#79
0(
0&
b0 )
1#
#80
0#
#81
b1 )
1#
#82
0#
#83
b10 )
1#
#84
0#
#85
b11 )
1#
#86
0#
#87
b0 g
b0 l
b0 #"
b0 k
b0 {
b0 P"
b0 _
b0 }
b0 %"
b0 H"
b0 `
b0 G"
b0 O"
18
b1111 '
b1111 /
b1111 N
b100001111000000 M
b1110 !
b1110 *
1(
1&
b100 )
1#
#88
0#
#89
b101 )
1#
#90
0#
#91
b110 )
1#
#92
0#
#93
b111 )
1#
#94
0#
#95
0(
0&
b0 )
1#
#96
0#
#97
b1 )
1#
#98
0#
#99
b10 )
1#
#100
0#
#101
b11 )
1#
#102
0#
#103
03
00
0-
b1 \
b1 5"
b1 E"
b1 j
b1 m
b1 6"
b1 R"
b1 f
b1 |
b1 ""
b1 &"
b1 k
b1 {
b1 P"
08
1@
b1 C
b1 K
b1 P
b1 y
b0 D
b0 L
b0 O
b0 Q"
b10000 '
b10000 /
b10000 N
b1010000000000 M
b1111 !
b1111 *
1(
1&
b100 )
1#
#104
0#
#105
b101 )
1#
#106
0#
#107
b110 )
1#
#108
0#
#109
b111 )
1#
#110
0#
#111
0(
0&
b0 )
1#
#112
0#
#113
b1 )
1#
#114
0#
#115
b10 )
1#
#116
0#
#117
b11 )
1#
#118
0#
#119
b100000000000000000101001 f
b100000000000000000101001 |
b100000000000000000101001 ""
b100000000000000000101001 &"
b0 k
b0 {
b0 P"
17
0@
b0 C
b0 K
b0 P
b0 y
b1111 D
b1111 L
b1111 O
b1111 Q"
b101 '
b101 /
b101 N
b10001111000000 M
b10000 !
b10000 *
1(
1&
b100 )
1#
#120
0#
#121
b101 )
1#
#122
0#
#123
b110 )
1#
#124
0#
#125
b111 )
1#
#126
0#
#127
0(
0&
b0 )
1#
#128
0#
#129
b1 )
1#
#130
0#
#131
b10 )
1#
#132
0#
#133
b11 )
1#
#134
0#
#135
1<
07
b0 '
b0 /
b0 N
b10000000000001111000000 M
b101 !
b101 *
1(
1&
b100 )
1#
#136
0#
#137
b101 )
1#
#138
0#
#139
b110 )
1#
#140
0#
#141
b111 )
1#
#142
0#
#143
0(
0&
b0 )
1#
#144
0#
#145
b1 )
1#
#146
0#
#147
b10 )
1#
#148
0#
#149
b11 )
1#
#150
0#
#151
b0 [
b0 ;"
b0 F"
b0 b
b0 ."
b0 8"
b0 A"
b1 f
b1 |
b1 ""
b1 &"
b10 2
b10 F
b10 U
b10 r
b1 1
b1 G
b1 T
b1 q
b1 2"
b1 9"
b0 V
b0 s
b0 ,"
b1 ]
b1 ("
b1 N"
b1 W
b1 t
b1 M"
b0 ^
b0 '"
b0 L"
b0 X
b0 u
b0 K"
b100000000000000000000000000001 x
0<
1?
b1000 d
b1000 $"
b1000 *"
b1000 <"
b1 '
b1 /
b1 N
b1000000000001111000000 M
b1000 e
b1000 +"
b1000 @"
b100 c
b100 p
b100 ="
b100 ?"
b1111111111111111 !
b1111111111111111 *
b1 ,
0+
0(
1&
b100 )
1#
#152
0#
#153
b101 )
1#
#154
0#
#155
b110 )
1#
#156
0#
#157
b111 )
1#
#158
0#
#159
0&
b0 )
1#
#160
0#
#161
b1 )
1#
#162
0#
#163
b10 )
1#
#164
0#
#165
b11 )
1#
#166
0#
#167
b10 ,
1&
b100 )
1#
#168
0#
#169
b101 )
1#
#170
0#
#171
b110 )
1#
#172
0#
#173
b111 )
1#
#174
0#
#175
0&
b0 )
1#
#176
0#
#177
b1 )
1#
#178
0#
#179
b10 )
1#
#180
0#
#181
b11 )
1#
#182
0#
#183
b11 ,
b0 !
b0 *
1&
b100 )
1#
#184
0#
#185
b101 )
1#
#186
0#
#187
b110 )
1#
#188
0#
#189
b111 )
1#
#190
0#
#191
0&
b0 )
1#
#192
0#
#193
b1 )
1#
#194
0#
#195
b10 )
1#
#196
0#
#197
b11 )
1#
#198
0#
#199
0?
b1110 '
b1110 /
b1110 N
b1111000000 M
1(
1+
b0 ,
1&
b100 )
1#
#200
0#
#201
b101 )
1#
#202
0#
#203
b110 )
1#
#204
0#
#205
b111 )
1#
#206
0#
#207
0(
0&
b0 )
1#
#208
0#
#209
b1 )
1#
#210
0#
#211
b10 )
1#
#212
0#
#213
b11 )
1#
#214
0#
#215
18
b1111 '
b1111 /
b1111 N
b100001111000000 M
b1110 !
b1110 *
1(
1&
b100 )
1#
#216
0#
#217
b101 )
1#
#218
0#
#219
b110 )
1#
#220
0#
#221
b111 )
1#
#222
0#
#223
0(
0&
b0 )
1#
#224
0#
#225
b1 )
1#
#226
0#
#227
b10 )
1#
#228
0#
#229
b11 )
1#
#230
0#
#231
1-
b0 \
b0 5"
b0 E"
b0 j
b0 m
b0 6"
b0 R"
b0 f
b0 |
b0 ""
b0 &"
b0 k
b0 {
b0 P"
08
1@
b1 C
b1 K
b1 P
b1 y
b0 D
b0 L
b0 O
b0 Q"
b101001 '
b101001 /
b101001 N
b1010000000000 M
b1111 !
b1111 *
1(
1&
b100 )
1#
#232
0#
#233
b101 )
1#
#234
0#
#235
b110 )
1#
#236
0#
#237
b111 )
1#
#238
0#
#239
0(
0&
b0 )
1#
#240
0#
#241
b1 )
1#
#242
0#
#243
b10 )
1#
#244
0#
#245
b11 )
1#
#246
0#
#247
b1 g
b1 l
b1 #"
b1 k
b1 {
b1 P"
b1 _
b1 }
b1 %"
b1 H"
b1 a
b1 3"
b1 B"
b1 f
b1 |
b1 ""
b1 &"
b10 9
b10 I
b10 Q
b10 /"
18
0@
b0 C
b0 K
b0 P
b0 y
b1111 D
b1111 L
b1111 O
b1111 Q"
b11011 '
b11011 /
b11011 N
b10000100001111000000 M
b101001 !
b101001 *
1(
1&
b100 )
1#
#248
0#
#249
b101 )
1#
#250
0#
#251
b110 )
1#
#252
0#
#253
b111 )
1#
#254
0#
#255
0(
0&
b0 )
1#
#256
0#
#257
b1 )
1#
#258
0#
#259
b10 )
1#
#260
0#
#261
b11 )
1#
#262
0#
